rtl/wave.vcd
$date
	Wed Mar 11 04:56:22 2026
$end
$version
	Icarus Verilog
$end
$timescale
	1s
$end
$scope module testbench $end
$var wire 32 ! pc_out [31:0] $end
$var wire 1 " halt $end
$var reg 1 # clk $end
$var reg 1 $ rst $end
$scope module dut $end
$var wire 1 % bht_update_en $end
$var wire 1 # clk $end
$var wire 32 & dc_mem_rd_data [31:0] $end
$var wire 1 ' flush $end
$var wire 32 ( ic_mem_rd_data [31:0] $end
$var wire 1 ) mispredict $end
$var wire 32 * pc_out [31:0] $end
$var wire 1 $ rst $end
$var wire 1 + stall $end
$var wire 32 , wb_data [31:0] $end
$var wire 1 - stall_ldu $end
$var wire 32 . rs2_data [31:0] $end
$var wire 5 / rs2_addr [4:0] $end
$var wire 32 0 rs1_data [31:0] $end
$var wire 5 1 rs1_addr [4:0] $end
$var wire 1 2 reg_write_d $end
$var wire 5 3 rd_addr [4:0] $end
$var wire 7 4 opcode [6:0] $end
$var wire 1 5 mem_write_d $end
$var wire 1 6 mem_to_reg_d $end
$var wire 1 7 mem_read_d $end
$var wire 1 8 jump_d $end
$var wire 1 9 jalr_d $end
$var wire 32 : imm_u [31:0] $end
$var wire 32 ; imm_s [31:0] $end
$var wire 32 < imm_j [31:0] $end
$var wire 32 = imm_i [31:0] $end
$var wire 32 > imm_b [31:0] $end
$var wire 1 ? icache_stall $end
$var wire 32 @ icache_data [31:0] $end
$var wire 32 A ic_misses [31:0] $end
$var wire 10 B ic_mem_rd_addr [9:0] $end
$var wire 32 C ic_hits [31:0] $end
$var wire 32 D ic_acc [31:0] $end
$var wire 1 " halt $end
$var wire 7 E funct7 [6:0] $end
$var wire 3 F funct3 [2:0] $end
$var wire 2 G forward_b [1:0] $end
$var wire 2 H forward_a [1:0] $end
$var wire 1 I dcache_stall $end
$var wire 32 J dcache_data [31:0] $end
$var wire 32 K dc_misses [31:0] $end
$var wire 1 L dc_mem_wr_en $end
$var wire 32 M dc_mem_wr_data [31:0] $end
$var wire 32 N dc_mem_wr_addr [31:0] $end
$var wire 10 O dc_mem_rd_addr [9:0] $end
$var wire 32 P dc_hits [31:0] $end
$var wire 32 Q dc_acc [31:0] $end
$var wire 1 R branch_d $end
$var wire 32 S bht_preds [31:0] $end
$var wire 32 T bht_predict_target [31:0] $end
$var wire 1 U bht_predict_taken $end
$var wire 32 V bht_mispreds [31:0] $end
$var wire 1 W alu_zero $end
$var wire 1 X alu_src_d $end
$var wire 32 Y alu_result [31:0] $end
$var wire 4 Z alu_op_d [3:0] $end
$var reg 32 [ alu_a [31:0] $end
$var reg 32 \ alu_b [31:0] $end
$var reg 1 ] branch_taken $end
$var reg 32 ^ branch_target [31:0] $end
$var reg 32 _ ex_mem_alu_result [31:0] $end
$var reg 3 ` ex_mem_funct3 [2:0] $end
$var reg 1 a ex_mem_mem_read $end
$var reg 1 b ex_mem_mem_to_reg $end
$var reg 1 c ex_mem_mem_write $end
$var reg 5 d ex_mem_rd [4:0] $end
$var reg 1 e ex_mem_reg_write $end
$var reg 32 f ex_mem_rs2_data [31:0] $end
$var reg 32 g fwd_rs2 [31:0] $end
$var reg 4 h id_ex_alu_op [3:0] $end
$var reg 1 i id_ex_alu_src $end
$var reg 1 j id_ex_branch $end
$var reg 3 k id_ex_funct3 [2:0] $end
$var reg 32 l id_ex_imm_b [31:0] $end
$var reg 32 m id_ex_imm_i [31:0] $end
$var reg 32 n id_ex_imm_j [31:0] $end
$var reg 32 o id_ex_imm_s [31:0] $end
$var reg 32 p id_ex_imm_u [31:0] $end
$var reg 1 q id_ex_jalr $end
$var reg 1 r id_ex_jump $end
$var reg 1 s id_ex_mem_read $end
$var reg 1 t id_ex_mem_to_reg $end
$var reg 1 u id_ex_mem_write $end
$var reg 32 v id_ex_pc [31:0] $end
$var reg 1 w id_ex_predicted_taken $end
$var reg 32 x id_ex_predicted_target [31:0] $end
$var reg 5 y id_ex_rd [4:0] $end
$var reg 1 z id_ex_reg_write $end
$var reg 5 { id_ex_rs1 [4:0] $end
$var reg 32 | id_ex_rs1_data [31:0] $end
$var reg 5 } id_ex_rs2 [4:0] $end
$var reg 32 ~ id_ex_rs2_data [31:0] $end
$var reg 32 !" if_id_instr [31:0] $end
$var reg 32 "" if_id_pc [31:0] $end
$var reg 32 #" jump_target [31:0] $end
$var reg 32 $" mem_wb_alu_result [31:0] $end
$var reg 32 %" mem_wb_mem_data [31:0] $end
$var reg 1 &" mem_wb_mem_to_reg $end
$var reg 5 '" mem_wb_rd [4:0] $end
$var reg 1 (" mem_wb_reg_write $end
$var reg 32 )" pc [31:0] $end
$var reg 32 *" pc_next [31:0] $end
$scope module alu0 $end
$var wire 32 +" a [31:0] $end
$var wire 4 ," alu_op [3:0] $end
$var wire 32 -" b [31:0] $end
$var wire 1 W zero $end
$var wire 5 ." shamt [4:0] $end
$var reg 32 /" result [31:0] $end
$upscope $end
$scope module bht0 $end
$var wire 1 ] actually_taken $end
$var wire 1 # clk $end
$var wire 32 0" pc [31:0] $end
$var wire 1 $ rst $end
$var wire 1 % update_en $end
$var wire 32 1" update_pc [31:0] $end
$var wire 8 2" update_idx [7:0] $end
$var wire 32 3" predict_target [31:0] $end
$var wire 1 U predict_taken $end
$var wire 8 4" pred_idx [7:0] $end
$var wire 32 5" imm_b [31:0] $end
$var parameter 32 6" ENTRIES $end
$var reg 32 7" perf_mispredicts [31:0] $end
$var reg 32 8" perf_predictions [31:0] $end
$var integer 32 9" i [31:0] $end
$upscope $end
$scope module dcache0 $end
$var wire 32 :" addr [31:0] $end
$var wire 1 # clk $end
$var wire 32 ;" cur_word [31:0] $end
$var wire 3 <" funct3 [2:0] $end
$var wire 1 =" hit_w $end
$var wire 32 >" mem_rd_data [31:0] $end
$var wire 32 ?" mem_wr_data [31:0] $end
$var wire 1 L mem_wr_en $end
$var wire 1 a rd_en $end
$var wire 1 $ rst $end
$var wire 1 I stall $end
$var wire 32 @" wr_data [31:0] $end
$var wire 1 c wr_en $end
$var wire 32 A" wr_word [31:0] $end
$var wire 10 B" mem_wr_addr [9:0] $end
$var wire 10 C" mem_rd_addr [9:0] $end
$var wire 32 D" data_out [31:0] $end
$var wire 22 E" a_tag [21:0] $end
$var wire 8 F" a_index [7:0] $end
$var parameter 32 G" LINES $end
$var parameter 32 H" MEM_DELAY $end
$var reg 3 I" miss_cnt [2:0] $end
$var reg 32 J" perf_acc [31:0] $end
$var reg 32 K" perf_hits [31:0] $end
$var reg 32 L" perf_misses [31:0] $end
$var reg 1 M" state $end
$var integer 32 N" i [31:0] $end
$upscope $end
$scope module decoder0 $end
$var wire 3 O" funct3 [2:0] $end
$var wire 7 P" funct7 [6:0] $end
$var wire 7 Q" opcode [6:0] $end
$var wire 1 R" is_srai $end
$var reg 4 S" alu_op [3:0] $end
$var reg 1 X alu_src $end
$var reg 1 R branch $end
$var reg 1 9 jalr $end
$var reg 1 8 jump $end
$var reg 1 7 mem_read $end
$var reg 1 6 mem_to_reg $end
$var reg 1 5 mem_write $end
$var reg 1 2 reg_write $end
$upscope $end
$scope module fwd0 $end
$var wire 5 T" ex_mem_rd [4:0] $end
$var wire 1 e ex_mem_reg_write $end
$var wire 5 U" id_ex_rs1 [4:0] $end
$var wire 5 V" id_ex_rs2 [4:0] $end
$var wire 5 W" mem_wb_rd [4:0] $end
$var wire 1 (" mem_wb_reg_write $end
$var reg 2 X" forward_a [1:0] $end
$var reg 2 Y" forward_b [1:0] $end
$upscope $end
$scope module haz0 $end
$var wire 1 s id_ex_mem_read $end
$var wire 5 Z" id_ex_rd [4:0] $end
$var wire 5 [" if_id_rs1 [4:0] $end
$var wire 5 \" if_id_rs2 [4:0] $end
$var reg 1 - stall $end
$upscope $end
$scope module icache0 $end
$var wire 32 ]" addr [31:0] $end
$var wire 1 # clk $end
$var wire 32 ^" cur_word [31:0] $end
$var wire 1 _" hit_w $end
$var wire 32 `" mem_rd_data [31:0] $end
$var wire 1 a" rd_en $end
$var wire 1 $ rst $end
$var wire 1 ? stall $end
$var wire 10 b" mem_rd_addr [9:0] $end
$var wire 32 c" data_out [31:0] $end
$var wire 22 d" a_tag [21:0] $end
$var wire 8 e" a_index [7:0] $end
$var parameter 32 f" LINES $end
$var parameter 32 g" MEM_DELAY $end
$var reg 3 h" miss_cnt [2:0] $end
$var reg 32 i" perf_acc [31:0] $end
$var reg 32 j" perf_hits [31:0] $end
$var reg 32 k" perf_misses [31:0] $end
$var reg 1 l" state $end
$var integer 32 m" i [31:0] $end
$upscope $end
$scope module imm_gen0 $end
$var wire 32 n" instr [31:0] $end
$var wire 32 o" imm_u [31:0] $end
$var wire 32 p" imm_s [31:0] $end
$var wire 32 q" imm_j [31:0] $end
$var wire 32 r" imm_i [31:0] $end
$var wire 32 s" imm_b [31:0] $end
$upscope $end
$scope module regfile0 $end
$var wire 1 # clk $end
$var wire 5 t" rd_addr [4:0] $end
$var wire 32 u" rd_data [31:0] $end
$var wire 1 (" rd_wen $end
$var wire 5 v" rs1_addr [4:0] $end
$var wire 5 w" rs2_addr [4:0] $end
$var wire 1 $ rst $end
$var wire 32 x" rs2_data [31:0] $end
$var wire 32 y" rs1_data [31:0] $end
$scope begin $unm_blk_21 $end
$var integer 32 z" i [31:0] $end
$upscope $end
$upscope $end
$upscope $end
$upscope $end
$enddefinitions $end
$comment Show the parameter values. $end
$dumpall
b11 g"
b100000000 f"
b11 H"
b100000000 G"
b100000000 6"
$end
#0
$dumpvars
bx z"
bx y"
bx x"
bx w"
bx v"
bx u"
bx t"
bx0 s"
bx r"
bx0 q"
bx p"
bx000000000000 o"
bx n"
bx m"
xl"
bx k"
bx j"
bx i"
bx h"
bx e"
bx d"
bx c"
bx b"
xa"
bx `"
x_"
bx ^"
bx ]"
bx \"
bx ["
bx Z"
b0 Y"
b0 X"
bx W"
bx V"
bx U"
bx T"
b0 S"
xR"
bx Q"
bx P"
bx O"
bx N"
xM"
bx L"
bx K"
bx J"
bx I"
bx F"
bx E"
bx D"
bx C"
bx B"
bx A"
bx @"
bx ?"
bx >"
x="
bx <"
bx ;"
bx :"
bx 9"
bx 8"
bx 7"
bx0 5"
bx 4"
bx 3"
bx 2"
bx 1"
bx 0"
b0 /"
bx ."
bx -"
bx ,"
bx +"
bx *"
bx )"
x("
bx '"
x&"
bx %"
bx $"
bx #"
bx ""
bx !"
bx ~
bx }
bx |
bx {
xz
bx y
bx x
xw
bx v
xu
xt
xs
xr
xq
bx p
bx o
bx n
bx m
bx l
bx k
xj
xi
bx h
bx g
bx f
xe
bx d
xc
xb
xa
bx `
bx _
bx ^
0]
bx \
bx [
b0 Z
b0 Y
0X
1W
bx V
xU
bx T
bx S
0R
bx Q
bx P
bx O
b0xxxxxxxxxx N
bx M
xL
bx K
bx J
xI
b0 H
b0 G
bx F
bx E
bx D
bx C
bx B
bx A
bx @
x?
bx0 >
bx =
bx0 <
bx ;
bx000000000000 :
09
08
07
06
05
bx 4
bx 3
02
bx 1
bx 0
bx /
bx .
0-
bx ,
x+
bx *
x)
bx (
x'
bx &
x%
1$
0#
x"
bx !
$end
#5
1+
1?
b0 M
b0 ?"
b0 A"
0U
0_"
b0 @
b0 c"
b0 0
b0 y"
b0 .
b0 x"
0I
0="
b0 J
b0 D"
b0 ."
b0 4"
b0 d"
b0 ^"
b0 e"
b101000000000000010010011 (
b101000000000000010010011 `"
b0 B
b0 b"
b0 4
b0 Q"
b0 3
b0 F
b0 O"
b0 1
b0 ["
b0 v"
b0 /
b0 \"
b0 w"
0R"
b0 E
b0 P"
b0 =
b0 r"
b0 ;
b0 p"
b0 T
b0 3"
b0 >
b0 5"
b0 s"
b0 :
b0 o"
b0 <
b0 q"
1a"
0'
0)
b0 2"
b0 #"
b0 ^
b0 *"
0L
b0 E"
b0 ;"
b0 F"
b0 O
b0 C"
b0 N
b0 B"
b0 \
b0 -"
b0 g
b0 [
b0 +"
b0 ,
b0 u"
b0 V
b0 7"
b0 S
b0 8"
b0 D
b0 i"
b0 A
b0 k"
b0 C
b0 j"
b0 h"
0l"
b0 Q
b0 J"
b0 K
b0 L"
b0 P
b0 K"
b0 I"
0M"
b0 !
b0 *
b0 )"
b0 0"
b0 ]"
b0 ""
0"
b0 !"
b0 n"
b0 x
0w
b0 h
b0 ,"
0q
0r
0%
0j
0i
0t
0u
0s
0z
b0 k
b0 y
b0 Z"
b0 }
b0 V"
b0 {
b0 U"
b0 n
b0 p
b0 l
b0 o
b0 m
b0 ~
b0 |
b0 v
b0 1"
b0 `
b0 <"
0b
0c
0a
0e
b0 d
b0 T"
b0 f
b0 @"
b0 _
b0 :"
0&"
0("
b0 '"
b0 W"
b0 t"
b0 %"
b0 $"
b100000 z"
b100000000 9"
b100000000 m"
b100000000 N"
1#
#10
0#
#15
b100000 z"
b100000000 N"
b100000000 m"
b100000000 9"
1#
#20
0#
#25
1l"
b10 h"
b1 A
b1 k"
b1 D
b1 i"
b100000 z"
0$
1#
#30
0#
#35
b1 h"
1#
#40
0#
#45
b0 h"
1#
#50
0#
#55
b100 *"
0+
b101000000000000010010011 @
b101000000000000010010011 c"
0?
1_"
0l"
b101000000000000010010011 ^"
1#
#60
0#
#65
1+
1?
0_"
b0 @
b0 c"
1X
12
b1 4"
b0 ^"
b1 e"
b100010011 (
b100010011 `"
b1 B
b1 b"
b100 *"
b10011 4
b10011 Q"
b1 3
b1010 /
b1010 \"
b1010 w"
b1010 =
b1010 r"
b1 ;
b1 p"
b100000000000 >
b100000000000 5"
b100000000000 s"
b101000000000000000000000 :
b101000000000000000000000 o"
b1010 <
b1010 q"
b1 C
b1 j"
b10 D
b10 i"
b100000000100 T
b100000000100 3"
b100 !
b100 *
b100 )"
b100 0"
b100 ]"
b101000000000000010010011 !"
b101000000000000010010011 n"
1#
#70
0#
#75
1l"
b10 h"
b10 A
b10 k"
b11 D
b11 i"
1#
#80
0#
#85
b1 h"
1#
#90
0#
#95
b0 h"
1#
#100
0#
#105
b1000 *"
0+
b100010011 @
b100010011 c"
0?
1_"
0l"
b100010011 ^"
1#
#110
0#
#115
1+
1?
0W
b1010 Y
b1010 /"
b1010 ."
0_"
b0 @
b0 c"
b1010 #"
b100000000000 ^
b1010 \
b1010 -"
b10 3
b0 /
b0 \"
b0 w"
b0 =
b0 r"
b10 ;
b10 p"
b10 >
b10 5"
b10 s"
b0 :
b0 o"
b0 <
b0 q"
b10 4"
b0 ^"
b10 e"
b100000000000110010011 (
b100000000000110010011 `"
b10 B
b10 b"
b1000 *"
b100000000100 x
1i
1z
b1 y
b1 Z"
b1010 }
b1010 V"
b1010 n
b101000000000000000000000 p
b100000000000 l
b1 o
b1010 m
b100 ""
b100010011 !"
b100010011 n"
b1010 T
b1010 3"
b1000 !
b1000 *
b1000 )"
b1000 0"
b1000 ]"
b10 C
b10 j"
b100 D
b100 i"
1#
#120
0#
#125
1W
b0 Y
b0 /"
b0 ."
b0 #"
b0 ^
b10 F"
b10 O
b10 C"
b10 N
b10 B"
b0 \
b0 -"
1l"
b10 h"
b11 A
b11 k"
b101 D
b101 i"
b0 x
0i
0z
b0 y
b0 Z"
b0 }
b0 V"
b0 n
b0 p
b0 l
b0 o
b0 m
1e
b1 d
b1 T"
b1010 _
b1010 :"
1#
#130
0#
#135
b1010 ,
b1010 u"
b0 F"
b0 O
b0 C"
b0 N
b0 B"
1("
b1 '"
b1 W"
b1 t"
b1010 $"
0e
b0 d
b0 T"
b0 _
b0 :"
b1 h"
1#
#140
0#
#145
b0 ,
b0 u"
b0 h"
0("
b0 '"
b0 W"
b0 t"
b0 $"
1#
#150
0#
#155
b1100 *"
0+
b100000000000110010011 @
b100000000000110010011 c"
0?
1_"
0l"
b100000000000110010011 ^"
1#
#160
0#
#165
1+
1?
0_"
b0 @
b0 c"
b1010 .
b1010 x"
b11 4"
b0 ^"
b11 e"
b1000010011 (
b1000010011 `"
b11 B
b11 b"
b11 3
b1 /
b1 \"
b1 w"
b1 =
b1 r"
b11 ;
b11 p"
b100000000010 >
b100000000010 5"
b100000000010 s"
b100000000000000000000 :
b100000000000000000000 o"
b100000000000 <
b100000000000 q"
b1 2"
b100 #"
b110 ^
b1100 *"
b11 C
b11 j"
b110 D
b110 i"
b100000001110 T
b100000001110 3"
b1100 !
b1100 *
b1100 )"
b1100 0"
b1100 ]"
b1000 ""
b100000000000110010011 !"
b100000000000110010011 n"
b1010 x
1i
1z
b10 y
b10 Z"
b10 l
b10 o
b100 v
b100 1"
1#
#170
0#
#175
b0 2"
b0 #"
b0 ^
1e
b10 d
b10 T"
b0 x
0i
0z
b0 y
b0 Z"
b0 l
b0 o
b0 v
b0 1"
1l"
b10 h"
b100 A
b100 k"
b111 D
b111 i"
1#
#180
0#
#185
b1 h"
0e
b0 d
b0 T"
1("
b10 '"
b10 W"
b10 t"
1#
#190
0#
#195
0("
b0 '"
b0 W"
b0 t"
b0 h"
1#
#200
0#
#205
b10000 *"
0+
b1000010011 @
b1000010011 c"
0?
1_"
0l"
b1000010011 ^"
1#
#210
0#
#215
1+
1?
0W
b1 Y
b1 /"
b1 ."
b0 .
b0 x"
0_"
b0 @
b0 c"
b1 \
b1 -"
b1010 g
b10 2"
b100000001000 #"
b100000001010 ^
b100 3
b0 /
b0 \"
b0 w"
b0 =
b0 r"
b100 ;
b100 p"
b100 >
b100 5"
b100 s"
b0 :
b0 o"
b0 <
b0 q"
b100 4"
b0 ^"
b100 e"
b100100000110001100011 (
b100100000110001100011 `"
b100 B
b100 b"
b10000 *"
b100000001110 x
1i
1z
b11 y
b11 Z"
b1 }
b1 V"
b100000000000 n
b100000000000000000000 p
b100000000010 l
b11 o
b1 m
b1010 ~
b1000 v
b1000 1"
b1100 ""
b1000010011 !"
b1000010011 n"
b10100 T
b10100 3"
b10000 !
b10000 *
b10000 )"
b10000 0"
b10000 ]"
b100 C
b100 j"
b1000 D
b1000 i"
1#
#220
0#
#225
b1010 M
b1010 ?"
b1010 A"
1W
b0 Y
b0 /"
b0 ."
b0 2"
b0 #"
b0 ^
b0 \
b0 -"
b0 g
1l"
b10 h"
b101 A
b101 k"
b1001 D
b1001 i"
b0 x
0i
0z
b0 y
b0 Z"
b0 }
b0 V"
b0 n
b0 p
b0 l
b0 o
b0 m
b0 ~
b0 v
b0 1"
1e
b11 d
b11 T"
b1010 f
b1010 @"
b1 _
b1 :"
1#
#230
0#
#235
b0 M
b0 ?"
b0 A"
b1 ,
b1 u"
1("
b11 '"
b11 W"
b11 t"
b1 $"
0e
b0 d
b0 T"
b0 f
b0 @"
b0 _
b0 :"
b1 h"
1#
#240
0#
#245
b0 ,
b0 u"
b0 h"
0("
b0 '"
b0 W"
b0 t"
b0 $"
1#
#250
0#
#255
b10100 *"
0+
b100100000110001100011 @
b100100000110001100011 c"
0?
1_"
0l"
b100100000110001100011 ^"
1#
#260
0#
#265
1+
1?
0_"
b0 @
b0 c"
b1 Z
b1 S"
1R
0X
02
b1010 .
b1010 x"
b101 4"
b0 ^"
b101 e"
b1100010000001010110011 (
b1100010000001010110011 `"
b101 B
b101 b"
b1100011 4
b1100011 Q"
b11000 3
b100 1
b100 ["
b100 v"
b1 /
b1 \"
b1 w"
b1 =
b1 r"
b11000 ;
b11000 p"
b11000 >
b11000 5"
b11000 s"
b100100000000000000000 :
b100100000000000000000 o"
b100000100000000000 <
b100000100000000000 q"
b11 2"
b1100 #"
b10000 ^
b10100 *"
b101 C
b101 j"
b1010 D
b1010 i"
b101100 T
b101100 3"
b10100 !
b10100 *
b10100 )"
b10100 0"
b10100 ]"
b10000 ""
b100100000110001100011 !"
b100100000110001100011 n"
b10100 x
1i
1z
b100 y
b100 Z"
b100 l
b100 o
b1100 v
b1100 1"
1#
#270
0#
#275
b0 2"
b0 #"
b0 ^
1e
b100 d
b100 T"
b0 x
0i
0z
b0 y
b0 Z"
b0 l
b0 o
b0 v
b0 1"
1l"
b10 h"
b110 A
b110 k"
b1011 D
b1011 i"
1#
#280
0#
#285
b1 h"
0e
b0 d
b0 T"
1("
b100 '"
b100 W"
b100 t"
1#
#290
0#
#295
0("
b0 '"
b0 W"
b0 t"
b0 h"
1#
#300
0#
#305
b11000 *"
0+
b1100010000001010110011 @
b1100010000001010110011 c"
0?
1_"
0l"
b1100010000001010110011 ^"
1#
#310
0#
#315
1+
1a"
0'
0)
b1 .
b1 x"
1?
b1010 ."
12
b0 Z
b0 S"
0R
0_"
b0 @
b0 c"
0W
b11111111111111111111111111110110 Y
b11111111111111111111111111110110 /"
b1010 \
b1010 -"
b1010 g
b100 2"
0]
b100000100000010000 #"
b101000 ^
b110011 4
b110011 Q"
b101 3
b10 1
b10 ["
b10 v"
b11 /
b11 \"
b11 w"
b11 =
b11 r"
b101 ;
b101 p"
b100000000100 >
b100000000100 5"
b100000000100 s"
b1100010000000000000000 :
b1100010000000000000000 o"
b10000100000000010 <
b10000100000000010 q"
b110 4"
b0 ^"
b110 e"
b11000000100010011 (
b11000000100010011 `"
b110 B
b110 b"
b11000 *"
b101100 x
b1 h
b1 ,"
1%
1j
b11000 y
b11000 Z"
b1 }
b1 V"
b100 {
b100 U"
b100000100000000000 n
b100100000000000000000 p
b11000 l
b11000 o
b1 m
b1010 ~
b10000 v
b10000 1"
b10100 ""
b1100010000001010110011 !"
b1100010000001010110011 n"
b100000011100 T
b100000011100 3"
b11000 !
b11000 *
b11000 )"
b11000 0"
b11000 ]"
b110 C
b110 j"
b1100 D
b1100 i"
1#
#320
0#
#325
b1010 M
b1010 ?"
b1010 A"
b0 ."
1W
b0 Y
b0 /"
b0 2"
b0 #"
b0 ^
b1111111111111111111111 E"
b11111101 F"
b1111111101 O
b1111111101 C"
b1111111101 N
b1111111101 B"
b0 \
b0 -"
b0 g
b1 S
b1 8"
1l"
b10 h"
b111 A
b111 k"
b1101 D
b1101 i"
b0 x
b0 h
b0 ,"
0%
0j
b0 y
b0 Z"
b0 }
b0 V"
b0 {
b0 U"
b0 n
b0 p
b0 l
b0 o
b0 m
b0 ~
b0 v
b0 1"
b11000 d
b11000 T"
b1010 f
b1010 @"
b11111111111111111111111111110110 _
b11111111111111111111111111110110 :"
1#
#330
0#
#335
b0 M
b0 ?"
b0 A"
b11111111111111111111111111110110 ,
b11111111111111111111111111110110 u"
b0 E"
b0 F"
b0 O
b0 C"
b0 N
b0 B"
b11000 '"
b11000 W"
b11000 t"
b11111111111111111111111111110110 $"
b0 d
b0 T"
b0 f
b0 @"
b0 _
b0 :"
b1 h"
1#
#340
0#
#345
b0 ,
b0 u"
b0 h"
b0 '"
b0 W"
b0 t"
b0 $"
1#
#350
0#
#355
b11100 *"
0+
b11000000100010011 @
b11000000100010011 c"
0?
1_"
0l"
b11000000100010011 ^"
1#
#360
0#
#365
1+
1?
b1 0
b1 y"
0_"
b0 @
b0 c"
1X
12
b0 .
b0 x"
0W
b1 Y
b1 /"
b1 ."
b111 4"
b0 ^"
b111 e"
b101000000110010011 (
b101000000110010011 `"
b111 B
b111 b"
b10011 4
b10011 Q"
b10 3
b11 1
b11 ["
b11 v"
b0 /
b0 \"
b0 w"
b0 =
b0 r"
b10 ;
b10 p"
b10 >
b10 5"
b10 s"
b11000000000000000 :
b11000000000000000 o"
b11000000000000000 <
b11000000000000000 q"
b1 \
b1 -"
b1 g
b101 2"
b10000100000010110 #"
b100000011000 ^
b11100 *"
b111 C
b111 j"
b1110 D
b1110 i"
b11110 T
b11110 3"
b11100 !
b11100 *
b11100 )"
b11100 0"
b11100 ]"
b11000 ""
b11000000100010011 !"
b11000000100010011 n"
b100000011100 x
1z
b101 y
b101 Z"
b11 }
b11 V"
b10 {
b10 U"
b10000100000000010 n
b1100010000000000000000 p
b100000000100 l
b101 o
b11 m
b1 ~
b10100 v
b10100 1"
1#
#370
0#
#375
b1 M
b1 ?"
b1 A"
1W
b0 Y
b0 /"
b0 ."
b0 \
b0 -"
b0 g
b0 2"
b0 #"
b0 ^
1e
b101 d
b101 T"
b1 f
b1 @"
b1 _
b1 :"
b0 x
0z
b0 y
b0 Z"
b0 }
b0 V"
b0 {
b0 U"
b0 n
b0 p
b0 l
b0 o
b0 m
b0 ~
b0 v
b0 1"
1l"
b10 h"
b1000 A
b1000 k"
b1111 D
b1111 i"
1#
#380
0#
#385
b0 M
b0 ?"
b0 A"
b1 ,
b1 u"
b1 h"
0e
b0 d
b0 T"
b0 f
b0 @"
b0 _
b0 :"
1("
b101 '"
b101 W"
b101 t"
b1 $"
1#
#390
0#
#395
b0 ,
b0 u"
0("
b0 '"
b0 W"
b0 t"
b0 $"
b0 h"
1#
#400
0#
#405
b100000 *"
0+
b101000000110010011 @
b101000000110010011 c"
0?
1_"
0l"
b101000000110010011 ^"
1#
#410
0#
#415
1+
1?
0W
b1 Y
b1 /"
0_"
b0 @
b0 c"
b1 [
b1 +"
b110 2"
b11000000000011000 #"
b11010 ^
b11 3
b101 1
b101 ["
b101 v"
b11 ;
b11 p"
b100000000010 >
b100000000010 5"
b100000000010 s"
b101000000000000000 :
b101000000000000000 o"
b101000000000000000 <
b101000000000000000 q"
b1000 4"
b0 ^"
b1000 e"
b100100000001000010011 (
b100100000001000010011 `"
b1000 B
b1000 b"
b100000 *"
b11110 x
1i
1z
b10 y
b10 Z"
b11 {
b11 U"
b11000000000000000 n
b11000000000000000 p
b10 l
b10 o
b1 |
b11000 v
b11000 1"
b11100 ""
b101000000110010011 !"
b101000000110010011 n"
b100000100010 T
b100000100010 3"
b100000 !
b100000 *
b100000 )"
b100000 0"
b100000 ]"
b1000 C
b1000 j"
b10000 D
b10000 i"
1#
#420
0#
#425
1W
b0 Y
b0 /"
b0 2"
b0 #"
b0 ^
b0 [
b0 +"
1l"
b10 h"
b1001 A
b1001 k"
b10001 D
b10001 i"
b0 x
0i
0z
b0 y
b0 Z"
b0 {
b0 U"
b0 n
b0 p
b0 l
b0 o
b0 |
b0 v
b0 1"
1e
b10 d
b10 T"
b1 _
b1 :"
1#
#430
0#
#435
b1 ,
b1 u"
1("
b10 '"
b10 W"
b10 t"
b1 $"
0e
b0 d
b0 T"
b0 _
b0 :"
b1 h"
1#
#440
0#
#445
b0 ,
b0 u"
b0 h"
0("
b0 '"
b0 W"
b0 t"
b0 $"
1#
#450
0#
#455
b100100 *"
0+
b100100000001000010011 @
b100100000001000010011 c"
0?
1_"
0l"
b100100000001000010011 ^"
1#
#460
0#
#465
1+
1?
b0 0
b0 y"
0_"
b0 @
b0 c"
b1010 .
b1010 x"
0W
b1 Y
b1 /"
b1001 4"
b0 ^"
b1001 e"
b11111110000000000000011011100011 (
b11111110000000000000011011100011 `"
b1001 B
b1001 b"
b100 3
b100 1
b100 ["
b100 v"
b1 /
b1 \"
b1 w"
b1 =
b1 r"
b100 ;
b100 p"
b100 >
b100 5"
b100 s"
b100100000000000000000 :
b100100000000000000000 o"
b100000100000000000 <
b100000100000000000 q"
b1 [
b1 +"
b111 2"
b101000000000011100 #"
b100000011110 ^
b100100 *"
b1001 C
b1001 j"
b10010 D
b10010 i"
b101000 T
b101000 3"
b100100 !
b100100 *
b100100 )"
b100100 0"
b100100 ]"
b100000 ""
b100100000001000010011 !"
b100100000001000010011 n"
b100000100010 x
1i
1z
b11 y
b11 Z"
b101 {
b101 U"
b101000000000000000 n
b101000000000000000 p
b100000000010 l
b11 o
b1 |
b11100 v
b11100 1"
1#
#470
0#
#475
1W
b0 Y
b0 /"
b0 [
b0 +"
b0 2"
b0 #"
b0 ^
1e
b11 d
b11 T"
b1 _
b1 :"
b0 x
0i
0z
b0 y
b0 Z"
b0 {
b0 U"
b0 n
b0 p
b0 l
b0 o
b0 |
b0 v
b0 1"
1l"
b10 h"
b1010 A
b1010 k"
b10011 D
b10011 i"
1#
#480
0#
#485
b1 ,
b1 u"
b1 h"
0e
b0 d
b0 T"
b0 _
b0 :"
1("
b11 '"
b11 W"
b11 t"
b1 $"
1#
#490
0#
#495
b0 ,
b0 u"
0("
b0 '"
b0 W"
b0 t"
b0 $"
b0 h"
1#
#500
0#
#505
b101000 *"
0+
b11111110000000000000011011100011 @
b11111110000000000000011011100011 c"
0?
1_"
0l"
b11111110000000000000011011100011 ^"
1#
#510
0#
#515
1+
1?
0W
b1 Y
b1 /"
b1 ."
b0 .
b0 x"
b1 Z
b1 S"
1R
0X
02
0_"
b0 @
b0 c"
b1 \
b1 -"
b1010 g
b1000 2"
b100000100000100000 #"
b100100 ^
b1100011 4
b1100011 Q"
b1101 3
b0 1
b0 ["
b0 v"
b0 /
b0 \"
b0 w"
b1111111 E
b1111111 P"
b11111111111111111111111111100000 =
b11111111111111111111111111100000 r"
b11111111111111111111111111101101 ;
b11111111111111111111111111101101 p"
b11111111111111111111111111101100 >
b11111111111111111111111111101100 5"
b11111111111111111111111111101100 s"
b11111110000000000000000000000000 :
b11111110000000000000000000000000 o"
b11111111111100000000011111100000 <
b11111111111100000000011111100000 q"
b1010 4"
b0 ^"
b1010 e"
b1110011 (
b1110011 `"
b1010 B
b1010 b"
b101000 *"
b101000 x
1i
1z
b100 y
b100 Z"
b1 }
b1 V"
b100 {
b100 U"
b100000100000000000 n
b100100000000000000000 p
b100 l
b100 o
b1 m
b1010 ~
b100000 v
b100000 1"
b100100 ""
b11111110000000000000011011100011 !"
b11111110000000000000011011100011 n"
b10100 T
b10100 3"
b101000 !
b101000 *
b101000 )"
b101000 0"
b101000 ]"
b1010 C
b1010 j"
b10100 D
b10100 i"
1#
#520
0#
